//CRUNCHA1 JOB (SYS000),'RENA - 0929',CLASS=K,MSGLEVEL=(1,1),
//         MSGCLASS=X,NOTIFY=DEVRWQ,REGION=4M
//*        RESTART=STEP10
/*ROUTE PRINT RMT1
/*
//**********************************************************************
//*
//* EDIT PPST.EDBTRANS.BATCH BEFORE RUNNING THIS JBO
//*
//* SINCE THE RXTX RANGE (STEP-BASED), RX OPEN RANGE, TX OPEN RANGE,
//* AND IX RANGE ARE BEING RUN INTO THE SAME EDB MAINTENANCE PROCESS
//* AND COULD EFFECT THE SAME POPULATION OF EMPLOYEES,
//* IT IS NECESSARY TO OMIT MULTIPLE A1 TRANSACTIONS FOR A GIVEN
//* EMPLOYEE SO THAT THERE WILL NOT BE A GEN# REJECT.
//*
//* INPUT:  PPSP.RANGE.RXTX0309.EDBTRANS.INCL
//*         PPSP.ATB.RX0309.EDBTRANS.FINAL
//*         PPSP.ATB.TX0309.EDBTRANS.FINAL
//*         PPSP.RANGE.IX0309A.EDBTRANS.FINAL
//*
//* OUTPUT: PPSP.EDBTRANS.SP0309A
//*
//**********************************************************************
//STEP10   EXEC PGM=IDCAMS
//SYSPRINT DD SYSOUT=*
//SYSIN    DD *
   DELETE  (PPSP.EDBTRANS.SP0309A.UPD.TRN.COM)    PURGE
   DELETE  (PPSP.EDBTRANS.SP0309A.UPD.TRN.AV1)    PURGE
/*                                                                      00031000
//**********************************************************************
//STEP11   EXEC PGM=SYNCSORT
//SYSOUT   DD SYSOUT=*
//SORTIN   DD DSN=PPSP.RANGE.RXTX0309.EDBTRANS.INCL,DISP=SHR
//         DD DSN=PPSP.ATB.RX0309.EDBTRANS.FINAL,DISP=SHR
//         DD DSN=PPSP.ATB.TX0309.EDBTRANS.FINAL,DISP=SHR
//         DD DSN=PPSP.RANGE.IX0309A.EDBTRANS.FINAL,DISP=SHR
//SORTOUT  DD DSN=PPSP.EDBTRANS.SP0309A.UPD.TRN.COM,
//            UNIT=SYSDA,
//            VOL=SER=APC003,
//            DCB=(RECFM=FB,LRECL=102,BLKSIZE=23358),
//            SPACE=(TRK,(5,5),RLSE),
//            DISP=(NEW,CATLG,CATLG)
//SYSIN    DD *
  SORT FIELDS=(4,9,CH,A,1,2,CH,A,19,4,CH,A)
  INCLUDE COND=((1,1,CH,NE,C'B'))
//*  INCLUDE COND=((1,1,CH,NE,C'B',AND,
//*                1,1,CH,NE,C'X'))
//*
//*  WE DON'T EXCLUDE X1 TRANSACTIONS ANYMORE
/*
//**********************************************************************
//STEP12   EXEC PGM=SYNCSORT
//SYSOUT   DD SYSOUT=*
//SORTIN   DD DSN=PPSP.EDBTRANS.SP0309A.UPD.TRN.COM,DISP=SHR
//SORTOUT  DD DSN=PPSP.EDBTRANS.SP0309A.UPD.TRN.AV1,
//            UNIT=SYSDA,
//            VOL=SER=APC003,
//            DCB=(RECFM=FB,LRECL=102,BLKSIZE=23358),
//            SPACE=(TRK,(5,5),RLSE),
//            DISP=(NEW,CATLG,CATLG)
//SYSIN    DD *
  SORT FIELDS=(4,9,CH,A,1,2,CH,A,19,4,CH,A),EQUALS
  SUM  FIELDS=(NONE)
  INCLUDE COND=((1,1,CH,NE,C'B'))
  OUTREC FIELDS=(1,102)
/*
//*****************************************************************     00060001
//STEP13   EXEC PGM=FILEAID,REGION=6M
//*STEPLIB  DD  DISP=SHR,DSN=SYS3.FILEAID.V8R9M0.LOAD
//SYSPRINT DD  SYSOUT=*
//SYSLIST  DD  SYSOUT=*,DCB=(LRECL=183,BLKSIZE=1830)
//DD01     DD DISP=SHR,                                                 00100000
//            DSN=PPSP.EDBTRANS.SP0309A.UPD.TRN.COM
//DD01C    DD DISP=SHR,                                                 00120000
//            DSN=PPSP.EDBTRANS.SP0309A.UPD.TRN.AV1
//DD01CP   DD  *
*
*   COMPARE OPTIONS
0000 COMPARE_MODE=UNFORMATTED
0000 COMPARE_TYPE=SORTED
0000 RECORDS_TO_COMPARE=ALL
0000 DIFFERENCES_TO_COMPARE=ALL
*
*   PRINT OPTIONS
0000 PRINT_FORMAT=CHAR
0000 MAX_DIFFERENCES_TO_REPORT=ALL
0000 RECORD_TYPES_TO_PRINT=CHANGED,DELETED,INSERTED
0000 UNFORMATTED_REPORT_STYLE=CONDENSED
0000 UNFORMATTED_PRINT_SEQUENCE=ALTERNATE
0000 CHANGED_RECORD_PRINT_CONTENT=RECORD
0000 INSERTED_RECORD_PRINT_CONTENT=RECORD
0000 DELETED_RECORD_PRINT_CONTENT=RECORD
0000 MATCHED_RECORD_PRINT_CONTENT=RECORD
0000 CONDENSED_REPORT_PRINT_ONLY_CHANGED_DATA=NO
0000 CONDENSED_REPORT_UNDERLINE_CHANGES=BOTH
0000 CONDENSED_REPORT_UNDERLINE_SYNC/KEY=BOTH
0000 CONDENSED_REPORT_SUPPRESS_PRINT_WITHOUT_CHANGES=YES
0000 CONDENSED_REPORT_PRINT_RULER=TOP
0000 CONDENSED_REPORT_CHANGED_DATA_UNDERLINE_CHARACTER=_
0000 CONDENSED_REPORT_SYNC/KEY_UNDERLINE_CHARACTER=#
*
*   OUTPUT OPTIONS
*   NOT SPECIFIED
*
*   SYNC/KEY OPTIONS
0000 SYNC/KEY001:OLD_POSITION=00001,OLD_LENGTH=00009,OLD_DATA_TYPE=C,
                 SORTED=YES,SEQUENCE=ASCENDING,
                 NEW_POSITION=00001,NEW_LENGTH=00009,NEW_DATA_TYPE=C
0000 SYNC/KEY002:OLD_POSITION=00010,OLD_LENGTH=00002,OLD_DATA_TYPE=C,
                 SORTED=YES,SEQUENCE=ASCENDING,
                 NEW_POSITION=00010,NEW_LENGTH=00002,NEW_DATA_TYPE=C
*
*   COMPARE FIELDS SET 0001
/*
//SYSIN    DD  *
$$DD01 COMPARE
/*
//*                                                                     00060058
//UNCAT1 EXEC PGM=IEFBR14                                               00070058
//DD1     DD DSN=PPSP.EDBTRANS.SP0309A,                                 00080058
//        DISP=(MOD,DELETE,DELETE),                                     00090058
//        SPACE=(TRK,(0)),UNIT=SYSDA                                    00100058
//*                                                                     00110058
//STEP1    EXEC PGM=SYNCSORT                                            00120058
//SORTIN   DD DSN=PPST.EDBTRANS.BATCH,DISP=SHR                          00130058
//         DD DSN=PPSP.EDBTRANS.SP0309A.UPD.TRN.AV1,DISP=SHR            00140058
//SORTOUT  DD DSN=PPSP.EDBTRANS.SP0309A,                                00150058
//         DISP=(,CATLG,DELETE),                                        00160058
//*        VOL=SER=APC003,                                              00170058
//*        DCB=(RECFM=FB,LRECL=40,BLKSIZE=23400),                       00180058
//         UNIT=SYSDA,SPACE=(TRK,(75,75),RLSE)                          00190058
//SYSOUT   DD SYSOUT=*                                                  00200058
//SYSIN    DD *                                                         00210058
   SORT FIELDS=COPY                                                     00220058
           END                                                          00230058
//*                                                                     00240058
