//PPSPO83 JOB SYS000,'APCDBM - PRDCTL',MSGLEVEL=(1,1),                  00010002
//        NOTIFY=APCDBM,CLASS=F,MSGCLASS=F,                             00020000
//        REGION=4096K
// JCLLIB ORDER=APCP.PROCLIB                                            00053000
/*ROUTE PRINT RMT10                                                     00030000
//*
//********************************************************************* *
//*    CREATE  CYCLE  REPORTS (BACKUPS ONLY FOR UCSD)
//********************************************************************* *
//*
//CYCLRPT  EXEC  PAYCYLRT,CYCLE='$PDALYCC'
//
