//DEVRGM1  JOB (DEV399),'PRD CNTL - 0929',CLASS=C,MSGLEVEL=(1,1),
//         MSGCLASS=X,NOTIFY=DEVRGM,REGION=4M,USER=DEVRGM,
//*        RESTART=STEP10
//         RESTART=STEP18
//*        RESTART=STEP20
//*        RESTART=STEP30
/*ROUTE PRINT RMT1
/*                                                                      00220000
//*****************************************************************
//STEP10   EXEC PGM=IDCAMS
//SYSPRINT DD SYSOUT=*
//SYSIN    DD *
   DELETE  (PPST.UHLUMPS.CM6.XDSX.T0)         PURGE
   DELETE  (PPST.UHLUMPS.CM6.XDSX.T1)         PURGE
   DELETE  (PPST.UHLUMPS.CM6.XDSX.T2)         PURGE
   DELETE  (PPST.UHLUMPS.CM6.XDSX.T3)         PURGE
   DELETE  (PPST.UHLUMPS.CM6.XDSX.T4)         PURGE
   DELETE  (PPST.UHLUMPS.CM6.XDSX.T5)         PURGE
   DELETE  (PPST.UHLUMPS.CM6.XDSX.T6)         PURGE
   DELETE  (PPST.UHLUMPS.CM6.XDSX.T7)         PURGE
   DELETE  (PPST.UHLUMPS.CM6.XDSX.T8)         PURGE
   DELETE  (PPST.UHLUMPS.CM6.XDSX.T9)         PURGE
   DELETE  (PPST.UHLUMPS.CM6.XDSX.FINAL)      PURGE
   DELETE  (PPST.UHLUMPS.CM6.XDSX.MULT)       PURGE
/*
//*****************************************************************
//STEP11   EXEC PGM=PPL802
//STEPLIB  DD DSN=PPSP.LOADLIB,DISP=SHR
//SORTWK01 DD UNIT=SYSDA,SPACE=(CYL,30)
//SORTWK02 DD UNIT=SYSDA,SPACE=(CYL,30)
//SORTWK03 DD UNIT=SYSDA,SPACE=(CYL,30)
//CNTLCARD DD *
RECSIZE    262 400
TARGET   9   1   1
RESULT   8  61  62
RESULT   1  72 149
RESULT   1  34  49
DEFAULT  ' '
/*
//TABLEFIL DD DSN=PPSP.PXT.XEMX,DISP=SHR
//DATAFILE DD DSN=PPSP.PXT.XDSX,DISP=SHR
//PRINTER  DD SYSOUT=*
//SYSOUT   DD SYSOUT=*
//SYSPRINT DD SYSOUT=*
//SYSABOUT DD SYSOUT=*
//SYSDBOUT DD SYSOUT=*
//SYSABEND DD SYSOUT=*
//ABENDAID DD SYSOUT=*
//OUTPUT   DD DSN=PPST.UHLUMPS.CM6.XDSX.T0,
//            UNIT=SYSDA,
//            DCB=(RECFM=FB,LRECL=500,BLKSIZE=23000),
//            SPACE=(TRK,(300,150),RLSE),
//            DISP=(NEW,CATLG,CATLG)
//REPORT   DD SYSOUT=*
//CNTLRPT  DD SYSOUT=*
//*****************************************************************
//STEP12A  EXEC PGM=PPL802
//STEPLIB  DD DSN=PPSP.LOADLIB,DISP=SHR
//SORTWK01 DD UNIT=SYSDA,SPACE=(CYL,30)
//SORTWK02 DD UNIT=SYSDA,SPACE=(CYL,30)
//SORTWK03 DD UNIT=SYSDA,SPACE=(CYL,30)
//CNTLCARD DD *
RECSIZE    292 400
TARGET   4  98   3
RESULT  30 263   7
DEFAULT  ' '
/*
//TABLEFIL DD DSN=PPSP.PXT.TABLE.DEPT,DISP=SHR
//DATAFILE DD DSN=PPST.UHLUMPS.CM6.XDSX.T0,
//            DISP=SHR
//PRINTER  DD SYSOUT=*
//SYSOUT   DD SYSOUT=*
//SYSPRINT DD SYSOUT=*
//SYSABOUT DD SYSOUT=*
//SYSDBOUT DD SYSOUT=*
//SYSABEND DD SYSOUT=*
//ABENDAID DD SYSOUT=*
//OUTPUT   DD DSN=PPST.UHLUMPS.CM6.XDSX.T1,
//            UNIT=SYSDA,
//            DCB=(RECFM=FB,LRECL=500,BLKSIZE=23000),
//            SPACE=(TRK,(300,150),RLSE),
//            DISP=(NEW,CATLG,CATLG)
//REPORT   DD SYSOUT=*
//CNTLRPT  DD SYSOUT=*
//*****************************************************************
//STEP12B  EXEC PGM=PPL802
//STEPLIB  DD DSN=PPSP.LOADLIB,DISP=SHR
//SORTWK01 DD UNIT=SYSDA,SPACE=(CYL,30)
//SORTWK02 DD UNIT=SYSDA,SPACE=(CYL,30)
//SORTWK03 DD UNIT=SYSDA,SPACE=(CYL,30)
//CNTLCARD DD *
RECSIZE    292 400
TARGET   4  94   3
RESULT   1 262   7
DEFAULT  ' '
/*
//TABLEFIL DD DSN=PPSP.PXT.TABLE.DEPT,DISP=SHR
//DATAFILE DD DSN=PPST.UHLUMPS.CM6.XDSX.T1,
//            DISP=SHR
//PRINTER  DD SYSOUT=*
//SYSOUT   DD SYSOUT=*
//SYSPRINT DD SYSOUT=*
//SYSABOUT DD SYSOUT=*
//SYSDBOUT DD SYSOUT=*
//SYSABEND DD SYSOUT=*
//ABENDAID DD SYSOUT=*
//OUTPUT   DD DSN=PPST.UHLUMPS.CM6.XDSX.T2,
//            UNIT=SYSDA,
//            DCB=(RECFM=FB,LRECL=500,BLKSIZE=23000),
//            SPACE=(TRK,(300,150),RLSE),
//            DISP=(NEW,CATLG,CATLG)
//REPORT   DD SYSOUT=*
//CNTLRPT  DD SYSOUT=*
//*****************************************************************
//STEP13   EXEC PGM=PPL802
//STEPLIB  DD DSN=PPSP.LOADLIB,DISP=SHR
//SORTWK01 DD UNIT=SYSDA,SPACE=(CYL,30)
//SORTWK02 DD UNIT=SYSDA,SPACE=(CYL,30)
//SORTWK03 DD UNIT=SYSDA,SPACE=(CYL,30)
//CNTLCARD DD *
RECSIZE    322 100
TARGET   4  26   1
RESULT  30 293   5
DEFAULT  ' '
/*
//TABLEFIL DD DSN=PPSP.PXT.TABLE.TCT.TITLE,DISP=SHR
//DATAFILE DD DSN=PPST.UHLUMPS.CM6.XDSX.T2,
//            DISP=SHR
//PRINTER  DD SYSOUT=*
//SYSOUT   DD SYSOUT=*
//SYSPRINT DD SYSOUT=*
//SYSABOUT DD SYSOUT=*
//SYSDBOUT DD SYSOUT=*
//SYSABEND DD SYSOUT=*
//ABENDAID DD SYSOUT=*
//OUTPUT   DD DSN=PPST.UHLUMPS.CM6.XDSX.T3,
//            UNIT=SYSDA,
//            DCB=(RECFM=FB,LRECL=500,BLKSIZE=23000),
//            SPACE=(TRK,(300,150),RLSE),
//            DISP=(NEW,CATLG,CATLG)
//REPORT   DD SYSOUT=*
//CNTLRPT  DD SYSOUT=*
//*****************************************************************
//STEP14   EXEC PGM=PPL802
//STEPLIB  DD DSN=PPSP.LOADLIB,DISP=SHR
//SORTWK01 DD UNIT=SYSDA,SPACE=(CYL,30)
//SORTWK02 DD UNIT=SYSDA,SPACE=(CYL,30)
//SORTWK03 DD UNIT=SYSDA,SPACE=(CYL,30)
//CNTLCARD DD *
RECSIZE    322 100
TARGET   3 202   1
RESULT   2 211  41
RESULT   2 213  46
DEFAULT  ' '
/*
//TABLEFIL DD DSN=PPSP.PXT.TABLE.XDOS.CTL,DISP=SHR
//DATAFILE DD DSN=PPST.UHLUMPS.CM6.XDSX.T3,
//            DISP=SHR
//PRINTER  DD SYSOUT=*
//SYSOUT   DD SYSOUT=*
//SYSPRINT DD SYSOUT=*
//SYSABOUT DD SYSOUT=*
//SYSDBOUT DD SYSOUT=*
//SYSABEND DD SYSOUT=*
//ABENDAID DD SYSOUT=*
//OUTPUT   DD DSN=PPST.UHLUMPS.CM6.XDSX.T4,
//            UNIT=SYSDA,
//            DCB=(RECFM=FB,LRECL=500,BLKSIZE=23000),
//            SPACE=(TRK,(300,150),RLSE),
//            DISP=(NEW,CATLG,CATLG)
//REPORT   DD SYSOUT=*
//CNTLRPT  DD SYSOUT=*
//*****************************************************************
//STEP15A  EXEC PGM=SYNCSORT
//SYSOUT   DD SYSOUT=*
//SORTIN   DD DSN=PPST.UHLUMPS.CM6.XDSX.T4,
//            DISP=SHR
//SORTOUT  DD DSN=PPST.UHLUMPS.CM6.XDSX.T5,
//            DISP=(NEW,CATLG,CATLG),
//            DCB=(RECFM=FB,LRECL=322),
//            SPACE=(TRK,(60,15),RLSE),
//            UNIT=SYSDA
//SYSIN    DD *
  SORT FIELDS=(1,9,CH,A,153,2,CH,A)
  INCLUDE COND=((34,1,CH,EQ,C'A'),AND,
                (70,2,CH,EQ,C'M6',AND,
                 73,1,CH,EQ,C'C'),AND,
                (26,4,CH,EQ,C'2709',OR,
                 26,4,CH,EQ,C'2723',OR,
                 26,4,CH,EQ,C'2738'),AND,
                (211,4,CH,EQ,C'NR01'),AND,
                (183,6,CH,LE,C'050201',OR,
                 183,6,CH,GT,C'500000'),AND,
                ((189,6,CH,GE,C'050201',AND,
                  189,6,CH,LT,C'500000'),OR,
                 (189,6,CH,EQ,C'999999')))
  OUTREC FIELDS=(1,322)
/*
//*****************************************************************
//STEP15B1 EXEC PGM=SYNCSORT
//SYSOUT   DD SYSOUT=*
//SORTIN   DD DSN=PPST.UHLUMPS.CM6.XDSX.T5,
//            DISP=SHR
//SORTOUT  DD DSN=PPST.UHLUMPS.CM6.XDSX.T6,
//            DISP=(NEW,CATLG,CATLG),
//            DCB=(RECFM=FB,LRECL=322),
//            SPACE=(TRK,(60,15),RLSE),
//            UNIT=SYSDA
//SYSIN    DD *
  SORT FIELDS=(1,9,CH,A,153,2,CH,A)
  INCLUDE COND=(26,4,CH,EQ,C'2709')
  OUTREC FIELDS=(1,215,C'0050000',223,23,C'0050000',253,70)
/*
//*****************************************************************
//STEP15B1 EXEC PGM=SYNCSORT
//SYSOUT   DD SYSOUT=*
//SORTIN   DD DSN=PPST.UHLUMPS.CM6.XDSX.T5,
//            DISP=SHR
//SORTOUT  DD DSN=PPST.UHLUMPS.CM6.XDSX.T7,
//            DISP=(NEW,CATLG,CATLG),
//            DCB=(RECFM=FB,LRECL=322),
//            SPACE=(TRK,(60,15),RLSE),
//            UNIT=SYSDA
//SYSIN    DD *
  SORT FIELDS=(1,9,CH,A,153,2,CH,A)
  INCLUDE COND=(26,4,CH,NE,C'2709')
  OUTREC FIELDS=(1,215,C'0075000',223,23,C'0075000',253,70)
/*
//*****************************************************************
//STEP16A  EXEC PGM=SYNCSORT
//SYSOUT   DD SYSOUT=*
//SORTIN   DD DSN=PPST.UHLUMPS.CM6.XDSX.T6,
//            DISP=SHR
//         DD DSN=PPST.UHLUMPS.CM6.XDSX.T7,
//            DISP=SHR
//SORTOUT  DD DSN=PPST.UHLUMPS.CM6.XDSX.T8,
//            DISP=(NEW,CATLG,CATLG),
//            DCB=(RECFM=FB,LRECL=80),
//            SPACE=(TRK,(60,15),RLSE),
//            UNIT=SYSDA
//SYSIN    DD *
  SORT FIELDS=(1,9,CH,A)
  SUM  FIELDS=(178,5,ZD)
  OUTREC FIELDS=(1,9,X,178,5,X,64X)
/*
//*****************************************************************
//STEP16B  EXEC PGM=PPL802
//STEPLIB  DD DSN=PPSP.LOADLIB,DISP=SHR
//SORTWK01 DD UNIT=SYSDA,SPACE=(CYL,30)
//SORTWK02 DD UNIT=SYSDA,SPACE=(CYL,30)
//SORTWK03 DD UNIT=SYSDA,SPACE=(CYL,30)
//CNTLCARD DD *
RECSIZE    322  80
TARGET   9   1   1
RESULT   6 253  11
DEFAULT  ' '
/*
//TABLEFIL DD DSN=PPST.UHLUMPS.CM6.XDSX.T8,
//            DISP=SHR
//DATAFILE DD DSN=PPST.UHLUMPS.CM6.XDSX.T6,
//            DISP=SHR
//         DD DSN=PPST.UHLUMPS.CM6.XDSX.T7,
//            DISP=SHR
//PRINTER  DD SYSOUT=*
//SYSOUT   DD SYSOUT=*
//SYSPRINT DD SYSOUT=*
//SYSABOUT DD SYSOUT=*
//SYSDBOUT DD SYSOUT=*
//SYSABEND DD SYSOUT=*
//ABENDAID DD SYSOUT=*
//OUTPUT   DD DSN=PPST.UHLUMPS.CM6.XDSX.T9,
//            UNIT=SYSDA,
//            DCB=(RECFM=FB,LRECL=500,BLKSIZE=23000),
//            SPACE=(TRK,(300,150),RLSE),
//            DISP=(NEW,CATLG,CATLG)
//REPORT   DD SYSOUT=*
//CNTLRPT  DD SYSOUT=*
//*****************************************************************
//STEP17   EXEC PGM=SYNCSORT
//SYSOUT   DD SYSOUT=*
//SORTIN   DD DSN=PPST.UHLUMPS.CM6.XDSX.T9,
//            DISP=SHR
//SORTOUT  DD DSN=PPST.UHLUMPS.CM6.XDSX.FINAL,
//            DISP=(NEW,CATLG,CATLG),
//            DCB=(RECFM=FB,LRECL=322),
//            SPACE=(TRK,(60,15),RLSE),
//            UNIT=SYSDA
//SYSIN    DD *
  SORT FIELDS=(1,9,CH,A,153,2,CH,A)
  OUTREC FIELDS=(1,215,
                 ((246,7,ZD,MUL,178,5,ZD),DIV,253,5,ZD),
                 EDIT=(TTTTTTT),223,100)
/*
//*****************************************************************
//STEP18   EXEC PGM=SYNCSORT
//SYSOUT   DD SYSOUT=*
//SORTIN   DD DSN=PPST.UHLUMPS.CM6.XDSX.FINAL,
//            DISP=SHR
//SORTOUT  DD DSN=PPST.UHLUMPS.CM6.XDSX.MULT,
//            DISP=(NEW,CATLG,CATLG),
//            DCB=(RECFM=FB,LRECL=322),
//            SPACE=(TRK,(60,15),RLSE),
//            UNIT=SYSDA
//SYSIN    DD *
  SORT FIELDS=(1,9,CH,A,153,2,CH,A)
  INCLUDE COND=(216,7,ZD,NE,246,7,ZD)
  OUTREC FIELDS=(1,322)
/*
//
//*****************************************************************
//STEP19   EXEC PGM=IDCAMS
//SYSPRINT DD SYSOUT=*
//SYSIN    DD *
   DELETE  (PPST.UHLUMPS.CM6.XDSX.T0)         PURGE
   DELETE  (PPST.UHLUMPS.CM6.XDSX.T1)         PURGE
   DELETE  (PPST.UHLUMPS.CM6.XDSX.T2)         PURGE
   DELETE  (PPST.UHLUMPS.CM6.XDSX.T3)         PURGE
   DELETE  (PPST.UHLUMPS.CM6.XDSX.T4)         PURGE
   DELETE  (PPST.UHLUMPS.CM6.XDSX.T5)         PURGE
   DELETE  (PPST.UHLUMPS.CM6.XDSX.T6)         PURGE
   DELETE  (PPST.UHLUMPS.CM6.XDSX.T7)         PURGE
   DELETE  (PPST.UHLUMPS.CM6.XDSX.T8)         PURGE
   DELETE  (PPST.UHLUMPS.CM6.XDSX.T9)         PURGE
/*
//*****************************************************************
//STEP20   EXEC PGM=IDCAMS
//SYSPRINT DD SYSOUT=*
//SYSIN    DD *
   DELETE  (PPST.UHLUMPS.CM6.WORK.TB)      PURGE
/*
//*****************************************************************
//STEP21   EXEC PGM=SYNCSORT
//SYSOUT   DD SYSOUT=*
//SORTIN   DD DSN=PPST.UHLUMPS.CM6.XDSX.FINAL,
//            DISP=SHR
//SORTOUT  DD DSN=PPST.UHLUMPS.CM6.WORK.TB,
//            DISP=(NEW,CATLG,CATLG),
//            DCB=(RECFM=FB,LRECL=189),
//            SPACE=(TRK,(60,15),RLSE),
//            UNIT=SYSDA
//SYSIN    DD *
  SORT FIELDS=(1,9,CH,A,153,2,CH,A)
  OUTREC FIELDS=(1,9,X'05',
                 X,X'05',
                 106,26,X'05',
                 61,4,C'-',65,2,C'-',67,2,X'05',
                 C'00',98,4,X'05',
                 10,2,X'05',
                 40,3,ZD,EDIT=(IIT),X'05',
                 26,4,X'05',
                 70,2,X'05',
                 72,1,X'05',
                 225,7,X'05',
                 164,5,232,1,X'05',
                 170,1,X'05',
                 178,5,ZD,EDIT=(IIT.TT),X'05',
                 195,7,ZD,EDIT=(IIIIT.TT),X'05',
                 245,1,X'05',
                 216,7,ZD,EDIT=(IIIIT.TT),X'05',
                 246,7,ZD,EDIT=(IIIIT.TT),X'05',
                 264,29,X'05',
                 293,30,X'05',
                 X)
/*
//*****************************************************************
//STEP30   EXEC PGM=IDCAMS
//SYSPRINT DD SYSOUT=*
//SYSIN    DD *
   DELETE  (PPST.UHLUMPS.CM6.PAYTRANS)  PURGE
/*
//*****************************************************************
//STEP31   EXEC PGM=SYNCSORT
//SYSOUT   DD SYSOUT=*
//SORTIN   DD DSN=PPST.UHLUMPS.CM6.XDSX.FINAL,
//            DISP=SHR
//SORTOUT  DD DSN=PPST.UHLUMPS.CM6.PAYTRANS,
//            DISP=(NEW,CATLG,CATLG),
//            DCB=(RECFM=FB,LRECL=120),
//            SPACE=(TRK,(60,15),RLSE),
//            UNIT=SYSDA
//SYSIN    DD *
  SORT FIELDS=(1,9,CH,A,153,2,CH,A)
  OMIT    COND=(245,1,CH,EQ,C'H')
  OUTREC FIELDS=(1,9,C'AP',
                 C'022805',C'M',C'00',X,
                 26,4,
                 156,1,225,7,3X,233,6,239,6,164,5,232,1,170,1,
                 216,7,C'A',
                 C'LSP',
                 54X)
/*
//
