//VACPLAC JOB (SYS000),'PRODUCTION CONTROL',NOTIFY=APCDBM,              00000100
//           CLASS=F,MSGLEVEL=(1,1),MSGCLASS=X,REGION=2048K             00000200
//****************************************
//*  ZEKE EVENT 2312
//*********************************************************************
//*                                                                   *
//*    THIS JOB GENERATES VACATION LEAVE REPORTS                      *
//*                                                                   *
//*     !! DATES CHANGED AUTOMATICALLY THROUGH ZEKE (2.29.08-BEV)     *
//*  VACPLAC PRINTING TURNED OFF AS OF 7/2/99 - PAYROLL REQUEST/RENA  *
//*********************************************************************
//STEP1    EXEC PGM=IEBGENER,REGION=4096K
//VACXREF OUTPUT FORMS=PA02,DEST=LOCAL,COPIES=2,GROUPID=PAYROLL1
//SYSPRINT DD SYSOUT=*
//SYSUT1   DD DSN=PPSP.LVP.M$PMCYM..PPL874.PRINT.XREF,DISP=SHR
//SYSUT2   DD SYSOUT=X,OUTPUT=*.VACXREF
//*SYSUT2   DD SYSOUT=P,OUTPUT=*.VACXREF
//SYSIN    DD DUMMY
/*
//STEP2    EXEC PGM=IEBGENER,REGION=4096K
//VACFLE1 OUTPUT FORMS=PA11,DEST=LOCAL,GROUPID=PAYROLL2
//VACFLE2 OUTPUT FORMS=PA01,DEST=LOCAL,GROUPID=PAYROLL3
//SYSPRINT DD SYSOUT=*
//SYSUT1   DD DSN=PPSP.LVP.M$PMCYM..PPL874.PRINT.FILE,DISP=SHR
//SYSUT2   DD SYSOUT=X,OUTPUT=(*.VACFLE1,*.VACFLE2)
//*SYSUT2   DD SYSOUT=P,OUTPUT=(*.VACFLE1,*.VACFLE2)
//SYSIN    DD DUMMY
/*
